﻿[
  {
    "Person": "Helvetius Nagy",
    "Type": "Customer",
    "City": "Kirkland"
  },
  {
    "Person": "Leverling",
    "Type": "Seller",
    "City": "Kirkland"
  },
  {
    "Person": "Ann Devon",
    "Type": "Customer",
    "City": "London"
  },
  {
    "Person": "Buchanan",
    "Type": "Seller",
    "City": "London"
  },
  {
    "Person": "Dodsworth",
    "Type": "Seller",
    "City": "London"
  },
  {
    "Person": "Elizabeth Brown",
    "Type": "Customer",
    "City": "London"
  },
  {
    "Person": "Hari Kumar",
    "Type": "Customer",
    "City": "London"
  },
  {
    "Person": "King",
    "Type": "Seller",
    "City": "London"
  },
  {
    "Person": "Simon Crowther",
    "Type": "Customer",
    "City": "London"
  },
  {
    "Person": "Suyama",
    "Type": "Seller",
    "City": "London"
  },
  {
    "Person": "Thomas Hardy",
    "Type": "Customer",
    "City": "London"
  },
  {
    "Person": "Victoria Ashworth",
    "Type": "Customer",
    "City": "London"
  },
  {
    "Person": "Callahan",
    "Type": "Seller",
    "City": "Seattle"
  },
  {
    "Person": "Davolio",
    "Type": "Seller",
    "City": "Seattle"
  },
  {
    "Person": "Karl Jablonski",
    "Type": "Customer",
    "City": "Seattle"
  }
]