﻿[
  {
    "CustomerID": "CACTU",
    "City": "Buenos Aires"
  },
  {
    "CustomerID": "OCEAN",
    "City": "Buenos Aires"
  },
  {
    "CustomerID": "RANCH",
    "City": "Buenos Aires"
  },
  {
    "CustomerID": "FURIB",
    "City": "Lisboa"
  },
  {
    "CustomerID": "PRINI",
    "City": "Lisboa"
  },
  {
    "CustomerID": "AROUT",
    "City": "London"
  },
  {
    "CustomerID": "BSBEV",
    "City": "London"
  },
  {
    "CustomerID": "CONSH",
    "City": "London"
  },
  {
    "CustomerID": "EASTC",
    "City": "London"
  },
  {
    "CustomerID": "NORTS",
    "City": "London"
  },
  {
    "CustomerID": "SEVES",
    "City": "London"
  },
  {
    "CustomerID": "BOLID",
    "City": "Madrid"
  },
  {
    "CustomerID": "FISSA",
    "City": "Madrid"
  },
  {
    "CustomerID": "ROMEY",
    "City": "Madrid"
  },
  {
    "CustomerID": "ANATR",
    "City": "México D.F."
  },
  {
    "CustomerID": "ANTON",
    "City": "México D.F."
  },
  {
    "CustomerID": "CENTC",
    "City": "México D.F."
  },
  {
    "CustomerID": "PERIC",
    "City": "México D.F."
  },
  {
    "CustomerID": "TORTU",
    "City": "México D.F."
  },
  {
    "CustomerID": "DUMON",
    "City": "Nantes"
  },
  {
    "CustomerID": "FRANR",
    "City": "Nantes"
  },
  {
    "CustomerID": "PARIS",
    "City": "Paris"
  },
  {
    "CustomerID": "SPECD",
    "City": "Paris"
  },
  {
    "CustomerID": "LONEP",
    "City": "Portland"
  },
  {
    "CustomerID": "THEBI",
    "City": "Portland"
  },
  {
    "CustomerID": "HANAR",
    "City": "Rio de Janeiro"
  },
  {
    "CustomerID": "QUEDE",
    "City": "Rio de Janeiro"
  },
  {
    "CustomerID": "RICAR",
    "City": "Rio de Janeiro"
  },
  {
    "CustomerID": "COMMI",
    "City": "Sao Paulo"
  },
  {
    "CustomerID": "FAMIA",
    "City": "Sao Paulo"
  },
  {
    "CustomerID": "QUEEN",
    "City": "Sao Paulo"
  },
  {
    "CustomerID": "TRADH",
    "City": "Sao Paulo"
  }
]